Lab 10 Homework
…
Dipodomys merriami is the most frequently sampled animal in the study. How have the number of observations of this species changed over the years included in the study?

deserts %>%
  filter(genus=="Dipodomys", species=="merriami") %>%
  count(genus, species, year)

## # A tibble: 26 x 4
##    genus     species   year     n
##    <chr>     <chr>    <dbl> <int>
##  1 Dipodomys merriami  1977   264
##  2 Dipodomys merriami  1978   389
##  3 Dipodomys merriami  1979   209
##  4 Dipodomys merriami  1980   493
##  5 Dipodomys merriami  1981   559
##  6 Dipodomys merriami  1982   609
##  7 Dipodomys merriami  1983   528
##  8 Dipodomys merriami  1984   396
##  9 Dipodomys merriami  1985   667
## 10 Dipodomys merriami  1986   406
## #  with 16 more rows
…
Which two species have, on average, the highest weight? Once you have identified them, make a new column that is a ratio of weight to hindfoot_length. Make a plot that shows the range of this new ratio and fill by sex.

deserts %>%
  filter(weight!="NA") %>%
  group_by(species) %>%
  summarize(mean_wt=mean(weight, na.rm=T)) %>%
  arrange(desc(mean_wt))

## `summarise()` ungrouping output (override with `.groups` argument)

## # A tibble: 22 x 2
##    species      mean_wt
##    <chr>          <dbl>
##  1 albigula       159. 
##  2 spectabilis    120. 
##  3 spilosoma       93.5
##  4 hispidus        65.6
##  5 fulviventer     58.9
##  6 ochrognathus    55.4
##  7 ordii           48.9
##  8 merriami        43.2
##  9 baileyi         31.7
## 10 leucogaster     31.6
## #  with 12 more rows

deserts %>%
  filter(species=="albigula" | species=="spectabilis") %>%
  mutate(ratio_w_hl=weight/hindfoot_length)

## # A tibble: 3,756 x 14
##    record_id month   day  year plot_id species_id sex   hindfoot_length weight
##        <dbl> <dbl> <dbl> <dbl>   <dbl> <chr>      <chr>           <dbl>  <dbl>
##  1         1     7    16  1977       2 NL         M                  32     NA
##  2         2     7    16  1977       3 NL         M                  33     NA
##  3        11     7    16  1977       5 DS         F                  53     NA
##  4        17     7    16  1977       3 DS         F                  48     NA
##  5        20     7    17  1977      11 DS         F                  48     NA
##  6        22     7    17  1977      15 NL         F                  31     NA
##  7        30     7    17  1977      10 DS         F                  52     NA
##  8        38     7    17  1977      17 NL         M                  33     NA
##  9        42     7    18  1977      18 DS         F                  46     NA
## 10        58     7    18  1977      12 DS         M                  45     NA
## #  with 3,746 more rows, and 5 more variables: genus <chr>, species <chr>,
## #   taxa <chr>, plot_type <chr>, ratio_w_hl <dbl>
…
