Basic loops
…
# how to show them on a map?
data_list <-lapply(data_files3, read_csv)
collar_data_all <-bind_rows(data_list)
collar_data_all

## # A tibble: 240 x 6
##       X1 date       collar time                  lat  long
##    <dbl> <date>     <chr>  <dttm>              <dbl> <dbl>
##  1     1 2016-02-26 A1     2016-02-26 00:00:00  22.9  130.
##  2     2 2016-02-26 A1     2016-02-26 01:00:00  21.9  130.
##  3     3 2016-02-26 A1     2016-02-26 02:00:00  22.7  130.
##  4     4 2016-02-26 A1     2016-02-26 03:00:00  22.9  129.
##  5     5 2016-02-26 A1     2016-02-26 04:00:00  22.6  129.
##  6     6 2016-02-26 A1     2016-02-26 05:00:00  23.7  128.
##  7     7 2016-02-26 A1     2016-02-26 06:00:00  21.9  128.
##  8     8 2016-02-26 A1     2016-02-26 07:00:00  19.7  128.
##  9     9 2016-02-26 A1     2016-02-26 08:00:00  18.0  129.
## 10    10 2016-02-26 A1     2016-02-26 09:00:00  16.1  129.
## #  with 230 more rows
…
