…
fisheries_tidy$catch <- as.numeric(fisheries_tidy$catch)
```

3. How many countries are represented in the data? Provide a count and list their names.

```r
fisheries_tidy %>%
  select(country) %>%
  group_by(country) %>%
  count(country)
```

```
## # A tibble: 203 x 2
## # Groups:   country [203]
##    country                 n
##    <fct>               <int>
##  1 Albania               934
##  2 Algeria              1561
##  3 American Samoa        556
##  4 Angola               2119
##  5 Anguilla              129
##  6 Antigua and Barbuda   356
##  7 Argentina            3403
##  8 Aruba                 172
##  9 Australia            8183
## 10 Bahamas               423
## # … with 193 more rows
```

4. Refocus the data only to include only: country, isscaap_taxonomic_group, asfis_species_name, asfis_species_number, year, catch.

```r
fisheries_tidy %>%
  summarize(country, isscaap_taxonomic_group, asfis_species_name, asfis_species_number, year, catch)
```

```
## # A tibble: 376,771 x 6
##    country isscaap_taxonomic_g… asfis_species_na… asfis_species_num…  year catch
##    <fct>   <chr>                <chr>             <fct>              <dbl> <dbl>
##  1 Albania Sharks, rays, chima… Squatinidae       10903XXXXX          1995    NA
##  2 Albania Sharks, rays, chima… Squatinidae       10903XXXXX          1996    53
##  3 Albania Sharks, rays, chima… Squatinidae       10903XXXXX          1997    20
##  4 Albania Sharks, rays, chima… Squatinidae       10903XXXXX          1998    31
##  5 Albania Sharks, rays, chima… Squatinidae       10903XXXXX          1999    30
##  6 Albania Sharks, rays, chima… Squatinidae       10903XXXXX          2000    30
##  7 Albania Sharks, rays, chima… Squatinidae       10903XXXXX          2001    16
##  8 Albania Sharks, rays, chima… Squatinidae       10903XXXXX          2002    79
##  9 Albania Sharks, rays, chima… Squatinidae       10903XXXXX          2003     1
## 10 Albania Sharks, rays, chima… Squatinidae       10903XXXXX          2004     4
## # … with 376,761 more rows
```
…
6. Which country had the largest overall catch in the year 2000?

```r
fisheries_tidy %>%
  filter(year==2000)%>%
  arrange(desc(catch))
```

```
## # A tibble: 8,793 x 10
##    country common_name isscaap_group_n… isscaap_taxonom… asfis_species_n…
##    <fct>   <chr>       <fct>            <chr>            <fct>           
##  1 China   Marine fis… 39               Marine fishes n… 199XXXXXXX010   
##  2 Peru    Anchoveta(… 35               Herrings, sardi… 1210600208      
##  3 Russia… Alaska pol… 32               Cods, hakes, ha… 1480401601      
##  4 Viet N… Marine fis… 39               Marine fishes n… 199XXXXXXX010   
##  5 Chile   Chilean ja… 37               Miscellaneous p… 1702300405      
##  6 China   Marine mol… 58               Miscellaneous m… 399XXXXXXX016   
##  7 China   Largehead … 34               Miscellaneous d… 1750600302      
##  8 United… Alaska pol… 32               Cods, hakes, ha… 1480401601      
##  9 China   Marine cru… 47               Miscellaneous m… 299XXXXXXX013   
## 10 Philip… Scads nei   37               Miscellaneous p… 17023043XX      
## # … with 8,783 more rows, and 5 more variables: asfis_species_name <chr>,
## #   fao_major_fishing_area <fct>, measure <chr>, year <dbl>, catch <dbl>
```
…
```r
fisheries_tidy %>%
  filter(asfis_species_name =="Sardina pilchardus") %>%
  filter(year>= 1990 & year <= 2000) %>%
  group_by(country) %>%
  summarize(sum_catch =sum(catch, na.rm=T)) %>%
  arrange(desc(sum_catch))
```

```
## `summarise()` ungrouping output (override with `.groups` argument)
```

```
## # A tibble: 37 x 2
##    country               sum_catch
##    <fct>                     <dbl>
##  1 Morocco                    7470
##  2 Spain                      3507
##  3 Russian Federation         1639
##  4 Ukraine                    1030
##  5 France                      966
##  6 Portugal                    818
##  7 Greece                      528
##  8 Italy                       507
##  9 Serbia and Montenegro       478
## 10 Denmark                     477
## # … with 27 more rows
```
…
```r
fisheries_tidy %>%
  filter(year >=2008 & year<=2012) %>%
  group_by(asfis_species_number) %>%
  summarize(sum_catch = sum(catch, na.rm=T)) %>%
  arrange(desc(sum_catch))
```

```
## `summarise()` ungrouping output (override with `.groups` argument)
```

```
## # A tibble: 1,477 x 2
##    asfis_species_number sum_catch
##    <fct>                    <dbl>
##  1 199XXXXXXX010           105651
##  2 1480401601               41075
##  3 1210600208               35523
##  4 1750102501               32153
##  5 1750600302               30400
##  6 1210500105               28527
##  7 1750102610               20119
##  8 1750100201               14723
##  9 1480400202               13253
## 10 1750102605               12019
## # … with 1,467 more rows
```

10. Use the data to do at least one analysis of your choice.

```r
fisheries_tidy %>%
  filter(asfis_species_number == 1750102605)
```

```
## # A tibble: 4,441 x 10
##    country common_name isscaap_group_n… isscaap_taxonom… asfis_species_n…
##    <fct>   <chr>       <fct>            <chr>            <fct>           
##  1 Americ… Albacore    36               Tunas, bonitos,… 1750102605      
##  2 Americ… Albacore    36               Tunas, bonitos,… 1750102605      
##  3 Americ… Albacore    36               Tunas, bonitos,… 1750102605      
##  4 Americ… Albacore    36               Tunas, bonitos,… 1750102605      
##  5 Americ… Albacore    36               Tunas, bonitos,… 1750102605      
##  6 Americ… Albacore    36               Tunas, bonitos,… 1750102605      
##  7 Americ… Albacore    36               Tunas, bonitos,… 1750102605      
##  8 Americ… Albacore    36               Tunas, bonitos,… 1750102605      
##  9 Americ… Albacore    36               Tunas, bonitos,… 1750102605      
## 10 Americ… Albacore    36               Tunas, bonitos,… 1750102605      
## # … with 4,431 more rows, and 5 more variables: asfis_species_name <chr>,
## #   fao_major_fishing_area <fct>, measure <chr>, year <dbl>, catch <dbl>
```
…
